testbench/system_wave.vcd
$date
	Sat Jan 10 21:08:59 2026
$end
$version
	Icarus Verilog
$end
$timescale
	1ps
$end
$scope module tb_system_top_auto $end
$var wire 1 ! valid_o $end
$var wire 8 " data_o [7:0] $end
$var wire 1 # busy_o $end
$var parameter 32 $ CLK_PERIOD $end
$var parameter 32 % TEST_LOOPS $end
$var parameter 32 & TIMEOUT_CYCLES $end
$var reg 1 ' clk $end
$var reg 16 ( data_i [15:0] $end
$var reg 1 ) dvalid_i $end
$var reg 2 * encoder_state [1:0] $end
$var reg 1 + rst_n $end
$var integer 32 , fail_cnt [31:0] $end
$var integer 32 - pass_cnt [31:0] $end
$scope function software_encoder $end
$var reg 8 . data_in [7:0] $end
$var reg 16 / encoded_word [15:0] $end
$var integer 32 0 i [31:0] $end
$var reg 1 1 p_101 $end
$var reg 1 2 p_111 $end
$var reg 1 3 r0 $end
$var reg 1 4 r1 $end
$var reg 1 5 u $end
$upscope $end
$scope module dut $end
$var wire 1 # busy_o $end
$var wire 1 ' clk $end
$var wire 16 6 data_i [15:0] $end
$var wire 1 ) dvalid_i $end
$var wire 1 + rst_n $end
$var wire 1 7 w_tbu_busy $end
$var wire 1 8 w_sipo_valid $end
$var wire 1 9 w_sipo_bit $end
$var wire 1 : w_core_valid $end
$var wire 2 ; w_core_data [1:0] $end
$var wire 1 ! valid_o $end
$var wire 1 < piso_busy $end
$var wire 16 = fifo_rdata [15:0] $end
$var wire 1 > fifo_full $end
$var wire 1 ? fifo_empty $end
$var wire 8 @ data_o [7:0] $end
$var parameter 32 A FLUSH_LIMIT $end
$var parameter 32 B S_CHECK $end
$var parameter 32 C S_FIRE $end
$var parameter 32 D S_LOAD $end
$var parameter 32 E S_WAIT $end
$var parameter 32 F S_WAIT_BUSY $end
$var parameter 32 G TBL $end
$var reg 1 H fifo_ren $end
$var reg 6 I flush_cnt [5:0] $end
$var reg 3 J fsm_state [2:0] $end
$var reg 16 K piso_din [15:0] $end
$var reg 1 L piso_start $end
$scope module core_inst $end
$var wire 1 7 busy_o $end
$var wire 1 ' clk $end
$var wire 1 + rst_n $end
$var wire 8 M w_pm_new_s3 [7:0] $end
$var wire 8 N w_pm_new_s2 [7:0] $end
$var wire 8 O w_pm_new_s1 [7:0] $end
$var wire 8 P w_pm_new_s0 [7:0] $end
$var wire 8 Q w_pm_current_s3 [7:0] $end
$var wire 8 R w_pm_current_s2 [7:0] $end
$var wire 8 S w_pm_current_s1 [7:0] $end
$var wire 8 T w_pm_current_s0 [7:0] $end
$var wire 4 U w_dec_bits [3:0] $end
$var wire 2 V w_bm_s3_s3 [1:0] $end
$var wire 2 W w_bm_s3_s1 [1:0] $end
$var wire 2 X w_bm_s2_s3 [1:0] $end
$var wire 2 Y w_bm_s2_s1 [1:0] $end
$var wire 2 Z w_bm_s1_s2 [1:0] $end
$var wire 2 [ w_bm_s1_s0 [1:0] $end
$var wire 2 \ w_bm_s0_s2 [1:0] $end
$var wire 2 ] w_bm_s0_s0 [1:0] $end
$var wire 1 8 valid_serial_o $end
$var wire 1 : valid_i $end
$var wire 1 9 data_serial_o $end
$var wire 2 ^ data_core_i [1:0] $end
$var parameter 32 _ PM_WIDTH $end
$var parameter 32 ` TBL $end
$scope module acsu_inst $end
$var wire 9 a sum_s3_from_s3 [8:0] $end
$var wire 9 b sum_s3_from_s2 [8:0] $end
$var wire 9 c sum_s2_from_s1 [8:0] $end
$var wire 9 d sum_s2_from_s0 [8:0] $end
$var wire 9 e sum_s1_from_s3 [8:0] $end
$var wire 9 f sum_s1_from_s2 [8:0] $end
$var wire 9 g sum_s0_from_s1 [8:0] $end
$var wire 9 h sum_s0_from_s0 [8:0] $end
$var wire 8 i pm_s3_o [7:0] $end
$var wire 8 j pm_s3_i [7:0] $end
$var wire 8 k pm_s2_o [7:0] $end
$var wire 8 l pm_s2_i [7:0] $end
$var wire 8 m pm_s1_o [7:0] $end
$var wire 8 n pm_s1_i [7:0] $end
$var wire 8 o pm_s0_o [7:0] $end
$var wire 8 p pm_s0_i [7:0] $end
$var wire 4 q dec_bits_o [3:0] $end
$var wire 2 r bm_s3_s3_i [1:0] $end
$var wire 2 s bm_s3_s1_i [1:0] $end
$var wire 2 t bm_s2_s3_i [1:0] $end
$var wire 2 u bm_s2_s1_i [1:0] $end
$var wire 2 v bm_s1_s2_i [1:0] $end
$var wire 2 w bm_s1_s0_i [1:0] $end
$var wire 2 x bm_s0_s2_i [1:0] $end
$var wire 2 y bm_s0_s0_i [1:0] $end
$var parameter 32 z PM_WIDTH $end
$upscope $end
$scope module bmu_inst $end
$var wire 2 { bm_s0_s0_o [1:0] $end
$var wire 2 | bm_s0_s2_o [1:0] $end
$var wire 2 } bm_s1_s0_o [1:0] $end
$var wire 2 ~ bm_s1_s2_o [1:0] $end
$var wire 2 !" bm_s2_s1_o [1:0] $end
$var wire 2 "" bm_s2_s3_o [1:0] $end
$var wire 2 #" bm_s3_s1_o [1:0] $end
$var wire 2 $" bm_s3_s3_o [1:0] $end
$var wire 2 %" diff_00 [1:0] $end
$var wire 2 &" diff_01 [1:0] $end
$var wire 2 '" diff_10 [1:0] $end
$var wire 2 (" diff_11 [1:0] $end
$var wire 2 )" piso_data_i [1:0] $end
$var wire 2 *" dist_11 [1:0] $end
$var wire 2 +" dist_10 [1:0] $end
$var wire 2 ," dist_01 [1:0] $end
$var wire 2 -" dist_00 [1:0] $end
$upscope $end
$scope module pmu_inst $end
$var wire 1 ' clk $end
$var wire 8 ." pm_new_s0_i [7:0] $end
$var wire 8 /" pm_new_s1_i [7:0] $end
$var wire 8 0" pm_new_s2_i [7:0] $end
$var wire 8 1" pm_new_s3_i [7:0] $end
$var wire 1 + rst_n $end
$var wire 1 : valid_i $end
$var parameter 8 2" BAD_METRIC $end
$var parameter 32 3" PM_WIDTH $end
$var parameter 32 4" TBL $end
$var reg 8 5" min_pm [7:0] $end
$var reg 8 6" pm_current_s0_o [7:0] $end
$var reg 8 7" pm_current_s1_o [7:0] $end
$var reg 8 8" pm_current_s2_o [7:0] $end
$var reg 8 9" pm_current_s3_o [7:0] $end
$upscope $end
$scope module tbu_inst $end
$var wire 1 7 busy_o $end
$var wire 1 ' clk $end
$var wire 4 :" dec_bits_i [3:0] $end
$var wire 8 ;" pm_s0_i [7:0] $end
$var wire 8 <" pm_s1_i [7:0] $end
$var wire 8 =" pm_s2_i [7:0] $end
$var wire 8 >" pm_s3_i [7:0] $end
$var wire 1 + rst_n $end
$var wire 1 8 valid_serial_o $end
$var wire 1 : valid_i $end
$var wire 1 9 data_serial_o $end
$var parameter 32 ?" PIPE_LEN $end
$var parameter 32 @" PM_WIDTH $end
$var parameter 32 A" TBL $end
$var reg 32 B" path_s0 [31:0] $end
$var reg 32 C" path_s1 [31:0] $end
$var reg 32 D" path_s2 [31:0] $end
$var reg 32 E" path_s3 [31:0] $end
$var reg 32 F" valid_pipe [31:0] $end
$upscope $end
$upscope $end
$scope module fifo_inst $end
$var wire 1 ' clk $end
$var wire 1 H rd_en_i $end
$var wire 1 + rst_n $end
$var wire 16 G" wr_data_i [15:0] $end
$var wire 1 ) wr_en_i $end
$var wire 1 > full_o $end
$var wire 1 ? empty_o $end
$var parameter 32 H" DATA_WIDTH $end
$var parameter 32 I" FIFO_DEPTH $end
$var reg 5 J" count [4:0] $end
$var reg 16 K" rd_data_o [15:0] $end
$var reg 4 L" rd_ptr [3:0] $end
$var reg 4 M" wr_ptr [3:0] $end
$upscope $end
$scope module piso_inst $end
$var wire 1 ' clk $end
$var wire 16 N" data_parallel_i [15:0] $end
$var wire 1 L load_i $end
$var wire 1 + rst_n $end
$var wire 2 O" data_serial_o [1:0] $end
$var parameter 32 P" DATA_WIDTH $end
$var reg 4 Q" bit_cnt [3:0] $end
$var reg 1 < busy_o $end
$var reg 16 R" shift_reg [15:0] $end
$var reg 1 : valid_serial_o $end
$upscope $end
$scope module sipo_inst $end
$var wire 1 ' clk $end
$var wire 1 9 data_serial_i $end
$var wire 1 + rst_n $end
$var wire 1 8 valid_serial_i $end
$var parameter 32 S" DATA_WIDTH $end
$var reg 3 T" bit_cnt [2:0] $end
$var reg 1 ! byte_ready_o $end
$var reg 8 U" data_parallel_o [7:0] $end
$var reg 8 V" shift_reg [7:0] $end
$upscope $end
$upscope $end
$scope task send_and_wait $end
$var reg 8 W" original_data [7:0] $end
$var reg 16 X" encoded_val [15:0] $end
$var reg 1 Y" got_result $end
$var integer 32 Z" timeout_ctr [31:0] $end
$upscope $end
$upscope $end
$enddefinitions $end
$comment Show the parameter values. $end
$dumpall
b1000 S"
b10000 P"
b10000 I"
b10000 H"
b100000 A"
b1000 @"
b100000 ?"
b100000 4"
b1000 3"
b10000000 2"
b1000 z
b100000 `
b1000 _
b100000 G
b100 F
b1 E
b10 D
b11 C
b0 B
b100000 A
b11111010000 &
b101 %
b1010 $
$end
#0
$dumpvars
b0 Z"
0Y"
b0 X"
bx W"
b0 V"
b0 U"
b0 T"
b0 R"
b0 Q"
b0 O"
b0 N"
b0 M"
b0 L"
b0 K"
b0 J"
b0 G"
b0 F"
b0 E"
b0 D"
b0 C"
b0 B"
b10000001 >"
b10 ="
b10000001 <"
b0 ;"
b0 :"
b10000000 9"
b10000000 8"
b10000000 7"
b0 6"
b0 5"
b10000001 1"
b10 0"
b10000001 /"
b0 ."
b0 -"
b1 ,"
b1 +"
b10 *"
b0 )"
b11 ("
b10 '"
b1 &"
b0 %"
b1 $"
b1 #"
b1 ""
b1 !"
b0 ~
b10 }
b10 |
b0 {
b0 y
b10 x
b10 w
b0 v
b1 u
b1 t
b1 s
b1 r
b0 q
b0 p
b0 o
b10000000 n
b10000001 m
b10000000 l
b10 k
b10000000 j
b10000001 i
b0 h
b10000010 g
b10000001 f
b10000001 e
b10 d
b10000000 c
b10000001 b
b10000001 a
b0 ^
b0 ]
b10 \
b10 [
b0 Z
b1 Y
b1 X
b1 W
b1 V
b0 U
b0 T
b10000000 S
b10000000 R
b10000000 Q
b0 P
b10000001 O
b10 N
b10000001 M
0L
b0 K
b0 J
b0 I
0H
b0 @
1?
0>
b0 =
0<
b0 ;
0:
09
08
07
b0 6
05
04
03
02
01
b0 0
b0 /
b0 .
b0 -
b0 ,
0+
b0 *
0)
b0 (
0'
0#
b0 "
0!
$end
#5000
1'
#10000
0'
#15000
1'
#20000
0'
#25000
1'
#30000
0'
#35000
1'
#40000
0'
#45000
1'
#50000
0'
#55000
1'
#60000
0'
#65000
1'
#70000
0'
#75000
1'
#80000
0'
#85000
1'
#90000
0'
#95000
1'
#100000
0'
1+
#105000
b1 I
b11 J
1'
#110000
0'
#115000
b100 J
1L
1'
#120000
0'
#125000
b0 J
0L
1<
b1000 Q"
1'
#130000
0'
#135000
b111 Q"
1:
1'
#140000
0'
#145000
b11 M
b11 i
b11 1"
b11 >"
b11 O
b11 m
b11 /"
b11 <"
b1 F"
b10000000000000000000000000000000 E"
b10000000000000000000000000000000 D"
b10000010 a
b10000010 e
b10000001 Q
b10000001 j
b10000001 9"
b11 b
b11 f
b10 R
b10 l
b10 8"
b10000001 c
b10000011 g
b10000001 S
b10000001 n
b10000001 7"
b110 Q"
1'
#150000
0'
#155000
b101 Q"
b100 a
b100 e
b11 Q
b11 j
b11 9"
b11 c
b101 g
b11 S
b11 n
b11 7"
b11 F"
b11000000000000000000000000000000 E"
b1000000000000000000000000000000 C"
1'
#160000
0'
#165000
b111 F"
b100 Q"
1'
#170000
0'
#175000
b11 Q"
b1111 F"
1'
#180000
0'
#185000
b11111 F"
b10 Q"
1'
#190000
0'
#195000
b1 Q"
b111111 F"
1'
#200000
0'
b1110001000010111 X"
13
04
b1000 0
b1110001000010111 /
b0 *
11
12
05
b110101 .
b110101 W"
#205000
b1111111 F"
0<
0?
b1 J"
b1 M"
b1110001000010111 (
b1110001000010111 6
b1110001000010111 G"
1)
1'
#210000
0'
#215000
b10 J"
b10 M"
0:
b11111111 F"
b1 J
b0 I
1H
b0 (
b0 6
b0 G"
1'
#220000
0'
#225000
b10 J
0H
b1 J"
b1 L"
b1110001000010111 =
b1110001000010111 K"
0)
1'
#230000
0'
#235000
b11 J
b1110001000010111 K
b1110001000010111 N"
b1 Z"
1'
#240000
0'
#245000
b100 J
1L
b10 Z"
1'
#250000
0'
#255000
b0 5"
b0 N
b0 k
b0 0"
b0 ="
b10 P
b10 o
b10 ."
b10 ;"
b100 e
b1 W
b1 s
b1 #"
b11 b
b1 X
b1 t
b1 ""
b1 ,"
b100 a
b1 V
b1 r
b1 $"
b11 f
b1 Y
b1 u
b1 !"
b1 +"
b11 g
b0 [
b0 w
b0 }
b0 d
b0 \
b0 x
b0 |
b0 *"
b101 c
b10 Z
b10 v
b10 ~
b10 h
b10 ]
b10 y
b10 {
b10 -"
b10 &"
b1 '"
b0 ("
b11 %"
b11 ;
b11 ^
b11 )"
b11 O"
1<
b1000 Q"
b1110001000010111 R"
b0 J
0L
b11 Z"
1'
#260000
0'
#265000
b1 5"
b11 M
b11 i
b11 1"
b11 >"
b10 O
b10 m
b10 /"
b10 <"
b1 N
b1 k
b1 0"
b1 ="
b1 P
b1 o
b1 ."
b1 ;"
b1000 U
b1000 q
b1000 :"
b101 e
b10 W
b10 s
b10 #"
b100 b
b10 X
b10 t
b10 ""
b10 ,"
b11 a
b0 V
b0 r
b0 $"
b10 f
b0 Y
b0 u
b0 !"
b0 +"
b100 g
b1 [
b1 w
b1 }
b1 d
b1 \
b1 x
b1 |
b1 *"
b100 c
b1 Z
b1 v
b1 ~
b1 h
b1 ]
b1 y
b1 {
b1 -"
b11 &"
b0 '"
b1 ("
b10 %"
b10 ;
b10 ^
b10 )"
b10 O"
b111 Q"
b1000100001011100 R"
1:
b100 Z"
1'
#270000
0'
#275000
b1 N
b1 k
b1 0"
b1 ="
b0 P
b0 o
b0 ."
b0 ;"
b0 5"
b1 W
b1 s
b1 #"
b1 X
b1 t
b1 ""
b1 ,"
b1 V
b1 r
b1 $"
b1 Y
b1 u
b1 !"
b1 +"
b10 [
b10 w
b10 }
b10 d
b10 \
b10 x
b10 |
b10 *"
b0 Z
b0 v
b0 ~
b0 h
b0 ]
b0 y
b0 {
b0 -"
b1 M
b1 i
b1 1"
b1 >"
b1 O
b1 m
b1 /"
b1 <"
b1 &"
b10 '"
b11 ("
b0 %"
b0 ;
b0 ^
b0 )"
b0 O"
b100 U
b100 q
b100 :"
b110 Q"
b10000101110000 R"
b11 a
b11 e
b10 Q
b10 j
b10 9"
b1 b
b1 f
b0 R
b0 l
b0 8"
b1 c
b11 g
b1 S
b1 n
b1 7"
b111111111 F"
b11100000000000000000000000000000 E"
b101 Z"
1'
#280000
0'
#285000
b1 5"
b1 N
b1 k
b1 0"
b1 ="
b1 P
b1 o
b1 ."
b1 ;"
b1000 U
b1000 q
b1000 :"
b1 M
b1 i
b1 1"
b1 >"
b1 O
b1 m
b1 /"
b1 <"
b10 W
b10 s
b10 #"
b10 X
b10 t
b10 ""
b10 ,"
b0 V
b0 r
b0 $"
b0 Y
b0 u
b0 !"
b0 +"
b10 g
b1 [
b1 w
b1 }
b1 d
b1 \
b1 x
b1 |
b1 *"
b10 c
b1 Z
b1 v
b1 ~
b1 h
b1 ]
b1 y
b1 {
b1 -"
b11 &"
b0 '"
b1 ("
b10 %"
b10 ;
b10 ^
b10 )"
b10 O"
b1111111111 F"
b11000000000000000000000000000000 E"
b10100000000000000000000000000000 D"
b1 a
b11 e
b1 Q
b1 j
b1 9"
b11 b
b1 f
b1 R
b1 l
b1 8"
b101 Q"
b1000010111000000 R"
b110 Z"
1'
#290000
0'
#295000
b0 N
b0 k
b0 0"
b0 ="
b0 P
b0 o
b0 ."
b0 ;"
b100 U
b100 q
b100 :"
b0 5"
b1 W
b1 s
b1 #"
b1 X
b1 t
b1 ""
b1 ,"
b1 V
b1 r
b1 $"
b1 Y
b1 u
b1 !"
b1 +"
b10 [
b10 w
b10 }
b10 d
b10 \
b10 x
b10 |
b10 *"
b0 Z
b0 v
b0 ~
b0 h
b0 ]
b0 y
b0 {
b0 -"
b1 M
b1 i
b1 1"
b1 >"
b1 O
b1 m
b1 /"
b1 <"
b1 &"
b10 '"
b11 ("
b0 %"
b0 ;
b0 ^
b0 )"
b0 O"
b100 Q"
b1011100000000 R"
b1 a
b1 e
b0 Q
b0 j
b0 9"
b1 b
b1 f
b0 R
b0 l
b0 8"
b0 c
b10 g
b0 S
b0 n
b0 7"
b11111111111 F"
b11100000000000000000000000000000 E"
b10000000000000000000000000000000 D"
b1010000000000000000000000000000 C"
b111 Z"
1'
#300000
0'
#305000
b0 5"
b0 M
b0 i
b0 1"
b0 >"
b1 O
b1 m
b1 /"
b1 <"
b1 P
b1 o
b1 ."
b1 ;"
b10 U
b10 q
b10 :"
b1 N
b1 k
b1 0"
b1 ="
b0 W
b0 s
b0 #"
b0 b
b0 X
b0 t
b0 ""
b0 ,"
b10 V
b10 r
b10 $"
b10 f
b10 Y
b10 u
b10 !"
b10 +"
b1 [
b1 w
b1 }
b1 d
b1 \
b1 x
b1 |
b1 *"
b1 Z
b1 v
b1 ~
b1 h
b1 ]
b1 y
b1 {
b1 -"
b0 &"
b11 '"
b10 ("
b1 %"
b1 ;
b1 ^
b1 )"
b1 O"
b111111111111 F"
b11000000000000000000000000000000 E"
b10101000000000000000000000000000 D"
b1000000000000000000000000000000 C"
b11 a
b1 e
b1 Q
b1 j
b1 9"
b10 c
b10 g
b1 S
b1 n
b1 7"
b11 Q"
b101110000000000 R"
b1000 Z"
1'
#310000
0'
#315000
b0 5"
b0 O
b0 m
b0 /"
b0 <"
b1 M
b1 i
b1 1"
b1 >"
b10 N
b10 k
b10 0"
b10 ="
b10 P
b10 o
b10 ."
b10 ;"
b10 Q"
b111000000000000 R"
b10 a
b0 e
b0 Q
b0 j
b0 9"
b1 b
b11 f
b1 R
b1 l
b1 8"
b10 d
b10 h
b1 T
b1 p
b1 6"
b1111111111111 F"
b11010100000000000000000000000000 E"
b10000000000000000000000000000000 D"
b1100000000000000000000000000000 C"
b1001 Z"
1'
#320000
0'
#325000
b0 5"
b10 O
b10 m
b10 /"
b10 <"
b10 M
b10 i
b10 1"
b10 >"
b10 N
b10 k
b10 0"
b10 ="
b0 P
b0 o
b0 ."
b0 ;"
b1 W
b1 s
b1 #"
b1 X
b1 t
b1 ""
b1 ,"
b1 V
b1 r
b1 $"
b1 Y
b1 u
b1 !"
b1 +"
b0 [
b0 w
b0 }
b0 \
b0 x
b0 |
b0 *"
b10 Z
b10 v
b10 ~
b10 ]
b10 y
b10 {
b10 -"
b10 &"
b1 '"
b0 ("
b11 %"
b1011 U
b1011 q
b1011 :"
b11 ;
b11 ^
b11 )"
b11 O"
b11111111111111 F"
b11000000000000000000000000000000 E"
b1101010000000000000000000000000 C"
b10 a
b10 e
b1 Q
b1 j
b1 9"
b11 b
b11 f
b10 R
b10 l
b10 8"
b10 c
b0 g
b0 S
b0 n
b0 7"
b10 d
b100 h
b10 T
b10 p
b10 6"
b1 Q"
b1100000000000000 R"
b1010 Z"
1'
#330000
0'
#335000
b0 5"
b1 W
b1 s
b1 #"
b11 b
b1 X
b1 t
b1 ""
b1 ,"
b1 V
b1 r
b1 $"
b11 f
b1 Y
b1 u
b1 !"
b1 +"
b10 [
b10 w
b10 }
b10 \
b10 x
b10 |
b10 *"
b0 Z
b0 v
b0 ~
b0 ]
b0 y
b0 {
b0 -"
b11 M
b11 i
b11 1"
b11 >"
b11 O
b11 m
b11 /"
b11 <"
b0 P
b0 o
b0 ."
b0 ;"
b10 N
b10 k
b10 0"
b10 ="
b1 &"
b10 '"
b11 ("
b0 %"
b0 ;
b0 ^
b0 )"
b0 O"
b0 U
b0 q
b0 :"
0<
b0 R"
b11 a
b11 e
b10 Q
b10 j
b10 9"
b10 c
b100 g
b10 S
b10 n
b10 7"
b10 d
b0 h
b0 T
b0 p
b0 6"
b111111111111111 F"
b11100000000000000000000000000000 E"
b1100000000000000000000000000000 C"
b110101000000000000000000000000 B"
b1011 Z"
1'
#340000
0'
#345000
b1 J
1H
b1111111111111111 F"
b11000000000000000000000000000000 E"
b10011010100000000000000000000000 D"
b1000000000000000000000000000000 C"
b11010100000000000000000000000 B"
b100 a
b100 e
b11 Q
b11 j
b11 9"
b11 c
b101 g
b11 S
b11 n
b11 7"
0:
b1100 Z"
1'
#350000
0'
#355000
1?
b0 J"
b10 L"
b0 =
b0 K"
b10 J
0H
b1101 Z"
1'
#360000
0'
#365000
b11 J
b0 K
b0 N"
b1110 Z"
1'
#370000
0'
#375000
b100 J
1L
b1111 Z"
1'
#380000
0'
#385000
b0 J
0L
1<
b1000 Q"
b10000 Z"
1'
#390000
0'
#395000
b111 Q"
1:
b10001 Z"
1'
#400000
0'
#405000
b11111111111111111 F"
b11001101010000000000000000000000 E"
b10001101010000000000000000000000 D"
b1001101010000000000000000000000 C"
b1101010000000000000000000000 B"
b110 Q"
b10010 Z"
1'
#410000
0'
#415000
b101 Q"
b111111111111111111 F"
b11000110101000000000000000000000 E"
b10000110101000000000000000000000 D"
b1000110101000000000000000000000 C"
b110101000000000000000000000 B"
b10011 Z"
1'
#420000
0'
#425000
b1111111111111111111 F"
b11000011010100000000000000000000 E"
b10000011010100000000000000000000 D"
b1000011010100000000000000000000 C"
b11010100000000000000000000 B"
b100 Q"
b10100 Z"
1'
#430000
0'
#435000
b11 Q"
b11111111111111111111 F"
b11000001101010000000000000000000 E"
b10000001101010000000000000000000 D"
b1000001101010000000000000000000 C"
b1101010000000000000000000 B"
b10101 Z"
1'
#440000
0'
#445000
b111111111111111111111 F"
b11000000110101000000000000000000 E"
b10000000110101000000000000000000 D"
b1000000110101000000000000000000 C"
b110101000000000000000000 B"
b10 Q"
b10110 Z"
1'
#450000
0'
#455000
b1 Q"
b1111111111111111111111 F"
b11000000011010100000000000000000 E"
b10000000011010100000000000000000 D"
b1000000011010100000000000000000 C"
b11010100000000000000000 B"
b10111 Z"
1'
#460000
0'
#465000
b11111111111111111111111 F"
b11000000001101010000000000000000 E"
b10000000001101010000000000000000 D"
b1000000001101010000000000000000 C"
b1101010000000000000000 B"
0<
b11000 Z"
1'
#470000
0'
#475000
0:
b111111111111111111111111 F"
b11000000000110101000000000000000 E"
b10000000000110101000000000000000 D"
b1000000000110101000000000000000 C"
b110101000000000000000 B"
b1 I
b11 J
b11001 Z"
1'
#480000
0'
#485000
b100 J
1L
b11010 Z"
1'
#490000
0'
#495000
1<
b1000 Q"
b0 J
0L
b11011 Z"
1'
#500000
0'
#505000
b111 Q"
1:
b11100 Z"
1'
#510000
0'
#515000
b110 Q"
b1111111111111111111111111 F"
b11000000000011010100000000000000 E"
b10000000000011010100000000000000 D"
b1000000000011010100000000000000 C"
b11010100000000000000 B"
b11101 Z"
1'
#520000
0'
#525000
b11111111111111111111111111 F"
b11000000000001101010000000000000 E"
b10000000000001101010000000000000 D"
b1000000000001101010000000000000 C"
b1101010000000000000 B"
b101 Q"
b11110 Z"
1'
#530000
0'
#535000
b100 Q"
b111111111111111111111111111 F"
b11000000000000110101000000000000 E"
b10000000000000110101000000000000 D"
b1000000000000110101000000000000 C"
b110101000000000000 B"
b11111 Z"
1'
#540000
0'
#545000
b1111111111111111111111111111 F"
b11000000000000011010100000000000 E"
b10000000000000011010100000000000 D"
b1000000000000011010100000000000 C"
b11010100000000000 B"
b11 Q"
b100000 Z"
1'
#550000
0'
#555000
b10 Q"
b11111111111111111111111111111 F"
b11000000000000001101010000000000 E"
b10000000000000001101010000000000 D"
b1000000000000001101010000000000 C"
b1101010000000000 B"
b100001 Z"
1'
#560000
0'
#565000
b111111111111111111111111111111 F"
b11000000000000000110101000000000 E"
b10000000000000000110101000000000 D"
b1000000000000000110101000000000 C"
b110101000000000 B"
b1 Q"
b100010 Z"
1'
#570000
0'
#575000
0<
b1111111111111111111111111111111 F"
b11000000000000000011010100000000 E"
b10000000000000000011010100000000 D"
b1000000000000000011010100000000 C"
b11010100000000 B"
b100011 Z"
1'
#580000
0'
#585000
18
b10 I
b11 J
b11111111111111111111111111111111 F"
b11000000000000000001101010000000 E"
b10000000000000000001101010000000 D"
b1000000000000000001101010000000 C"
b1101010000000 B"
0:
b100100 Z"
1'
#590000
0'
#595000
b1 T"
b100 J
1L
b100101 Z"
1'
#600000
0'
#605000
b0 J
0L
b10 T"
1<
b1000 Q"
b100110 Z"
1'
#610000
0'
#615000
b111 Q"
1:
b11 T"
b100111 Z"
1'
#620000
0'
#625000
b100 T"
b11000000000000000000110101000000 E"
b10000000000000000000110101000000 D"
b1000000000000000000110101000000 C"
b110101000000 B"
b110 Q"
b101000 Z"
1'
#630000
0'
#635000
b101 Q"
b11000000000000000000011010100000 E"
b10000000000000000000011010100000 D"
b1000000000000000000011010100000 C"
b11010100000 B"
b101 T"
b101001 Z"
1'
#640000
0'
#645000
b110 T"
b11000000000000000000001101010000 E"
b10000000000000000000001101010000 D"
b1000000000000000000001101010000 C"
b1101010000 B"
b100 Q"
b101010 Z"
1'
#650000
0'
#655000
b11 Q"
b11000000000000000000000110101000 E"
b10000000000000000000000110101000 D"
b1000000000000000000000110101000 C"
b110101000 B"
b111 T"
b101011 Z"
1'
#660000
0'
#665000
b0 T"
1!
b11000000000000000000000011010100 E"
b10000000000000000000000011010100 D"
b1000000000000000000000011010100 C"
b11010100 B"
b10 Q"
b101100 Z"
1'
#670000
0'
#675000
b1 Q"
b11000000000000000000000001101010 E"
b10000000000000000000000001101010 D"
b1000000000000000000000001101010 C"
b1101010 B"
b1 T"
0!
1Y"
b1 ,
b101101 Z"
1'
#680000
0'
#685000
19
b10 T"
b11000000000000000000000000110101 E"
b10000000000000000000000000110101 D"
b1000000000000000000000000110101 C"
b110101 B"
0<
1'
#690000
0'
#695000
09
0:
b11000000000000000000000000011010 E"
b10000000000000000000000000011010 D"
b1000000000000000000000000011010 C"
b11010 B"
b11 T"
b1 V"
b11 I
b11 J
1'
#700000
0'
#705000
b100 J
1L
b100 T"
b10 V"
1'
#710000
0'
#715000
1<
b1000 Q"
b101 T"
b100 V"
b0 J
0L
1'
#720000
0'
#725000
b110 T"
b1000 V"
b111 Q"
1:
1'
#730000
0'
#735000
19
b110 Q"
b11000000000000000000000000001101 E"
b10000000000000000000000000001101 D"
b1000000000000000000000000001101 C"
b1101 B"
b111 T"
b10000 V"
1'
#740000
0'
#745000
09
b0 T"
1!
b100001 "
b100001 @
b100001 U"
b100001 V"
b11000000000000000000000000000110 E"
b10000000000000000000000000000110 D"
b1000000000000000000000000000110 C"
b110 B"
b101 Q"
1'
#750000
0'
#755000
19
b100 Q"
b11000000000000000000000000000011 E"
b10000000000000000000000000000011 D"
b1000000000000000000000000000011 C"
b11 B"
b1 T"
b1000010 V"
0!
1'
#760000
0'
#765000
b10 T"
b10000101 V"
b11000000000000000000000000000001 E"
b10000000000000000000000000000001 D"
b1000000000000000000000000000001 C"
b1 B"
b11 Q"
1'
#770000
0'
#775000
09
b10 Q"
b11000000000000000000000000000000 E"
b10000000000000000000000000000000 D"
b1000000000000000000000000000000 C"
b0 B"
b11 T"
b1011 V"
1'
#780000
0'
#785000
b100 T"
b10110 V"
b1 Q"
1'
#790000
0'
#795000
0<
b101 T"
b101100 V"
1'
#800000
0'
#805000
b100 I
b11 J
b110 T"
b1011000 V"
0:
1'
#810000
0'
#815000
b111 T"
b10110000 V"
b100 J
1L
1'
#820000
0'
#825000
b0 J
0L
b0 T"
1!
b1100000 "
b1100000 @
b1100000 U"
b1100000 V"
1<
b1000 Q"
1'
#830000
0'
#835000
b111 Q"
1:
b1 T"
b11000000 V"
0!
1'
#840000
0'
#845000
b10 T"
b10000000 V"
b110 Q"
1'
#850000
0'
#855000
b101 Q"
b11 T"
b0 V"
1'
#860000
0'
#865000
b100 T"
b100 Q"
1'
#870000
0'
#875000
b11 Q"
b101 T"
1'
#880000
0'
#885000
b110 T"
b10 Q"
1'
#890000
0'
#895000
b1 Q"
b111 T"
1'
#900000
0'
#905000
b0 T"
1!
b0 "
b0 @
b0 U"
0<
1'
#910000
0'
#915000
0:
b1 T"
0!
b101 I
b11 J
1'
#920000
0'
#925000
b100 J
1L
b10 T"
1'
#930000
0'
#935000
1<
b1000 Q"
b11 T"
b0 J
0L
1'
#940000
0'
#945000
b100 T"
b111 Q"
1:
1'
#950000
0'
#955000
b110 Q"
b101 T"
1'
#960000
0'
#965000
b110 T"
b101 Q"
1'
#970000
0'
#975000
0?
b1 J"
b11 M"
b100 Q"
b111 T"
1)
1'
b0 X"
01
02
03
b1000 0
b0 /
b0 .
b0 W"
#980000
0'
#985000
b0 T"
1!
b11 Q"
b10 J"
b100 M"
1'
#990000
0'
#995000
b10 Q"
b1 T"
0!
b0 Z"
0Y"
0)
1'
#1000000
0'
#1005000
b10 T"
b1 Q"
b1 Z"
1'
#1010000
0'
#1015000
0<
b11 T"
b10 Z"
1'
#1020000
0'
#1025000
b1 J
b0 I
1H
b100 T"
0:
b11 Z"
1'
#1030000
0'
#1035000
b1 J"
b11 L"
b101 T"
b10 J
0H
b100 Z"
1'
#1040000
0'
#1045000
b11 J
b110 T"
b101 Z"
1'
#1050000
0'
#1055000
b111 T"
b100 J
1L
b110 Z"
1'
#1060000
0'
#1065000
b0 J
0L
b0 T"
1!
1<
b1000 Q"
b111 Z"
1'
#1070000
0'
#1075000
b111 Q"
1:
b1 T"
0!
1Y"
b1 -
b1000 Z"
1'
#1080000
0'
#1085000
b10 T"
b110 Q"
1'
#1090000
0'
#1095000
b101 Q"
b11 T"
1'
#1100000
0'
#1105000
b100 T"
b100 Q"
1'
#1110000
0'
#1115000
b11 Q"
b101 T"
1'
#1120000
0'
#1125000
b110 T"
b10 Q"
1'
#1130000
0'
#1135000
b1 Q"
b111 T"
1'
