testbench/system_wave.vcd
$date
	Thu Jan  8 12:04:37 2026
$end
$version
	Icarus Verilog
$end
$timescale
	1ps
$end
$scope module tb_system_top_auto $end
$var wire 1 ! valid_o $end
$var wire 8 " data_o [7:0] $end
$var wire 1 # busy_o $end
$var parameter 32 $ CLK_PERIOD $end
$var parameter 32 % TEST_LOOPS $end
$var parameter 32 & TIMEOUT_CYCLES $end
$var reg 1 ' clk $end
$var reg 16 ( data_i [15:0] $end
$var reg 1 ) dvalid_i $end
$var reg 3 * encoder_state [2:0] $end
$var reg 1 + rst_n $end
$var integer 32 , fail_cnt [31:0] $end
$var integer 32 - pass_cnt [31:0] $end
$scope function software_encoder $end
$var reg 8 . data_in [7:0] $end
$var reg 16 / encoded_word [15:0] $end
$var reg 1 0 g_x $end
$var reg 1 1 g_y $end
$var integer 32 2 i [31:0] $end
$upscope $end
$scope module dut $end
$var wire 1 # busy_o $end
$var wire 1 ' clk $end
$var wire 16 3 data_i [15:0] $end
$var wire 1 ) dvalid_i $end
$var wire 1 + rst_n $end
$var wire 1 4 w_tbu_busy $end
$var wire 1 5 w_sipo_valid $end
$var wire 1 6 w_sipo_bit $end
$var wire 1 7 w_core_valid $end
$var wire 2 8 w_core_data [1:0] $end
$var wire 1 ! valid_o $end
$var wire 1 9 piso_busy $end
$var wire 16 : fifo_rdata [15:0] $end
$var wire 1 ; fifo_full $end
$var wire 1 < fifo_empty $end
$var wire 8 = data_o [7:0] $end
$var parameter 32 > FLUSH_LIMIT $end
$var parameter 32 ? S_CHECK $end
$var parameter 32 @ S_FIRE $end
$var parameter 32 A S_LOAD $end
$var parameter 32 B S_WAIT $end
$var parameter 32 C S_WAIT_BUSY $end
$var parameter 32 D TBL $end
$var reg 1 E fifo_ren $end
$var reg 5 F flush_cnt [4:0] $end
$var reg 3 G fsm_state [2:0] $end
$var reg 16 H piso_din [15:0] $end
$var reg 1 I piso_start $end
$scope module core_inst $end
$var wire 1 4 busy_o $end
$var wire 1 ' clk $end
$var wire 1 + rst_n $end
$var wire 2 J w_bm_s1_s0 [1:0] $end
$var wire 2 K w_bm_s2_s1 [1:0] $end
$var wire 2 L w_bm_s3_s1 [1:0] $end
$var wire 2 M w_bm_s3_s3 [1:0] $end
$var wire 8 N w_pm_new_s3 [7:0] $end
$var wire 8 O w_pm_new_s2 [7:0] $end
$var wire 8 P w_pm_new_s1 [7:0] $end
$var wire 8 Q w_pm_new_s0 [7:0] $end
$var wire 8 R w_pm_current_s3 [7:0] $end
$var wire 8 S w_pm_current_s2 [7:0] $end
$var wire 8 T w_pm_current_s1 [7:0] $end
$var wire 8 U w_pm_current_s0 [7:0] $end
$var wire 4 V w_dec_bits [3:0] $end
$var wire 2 W w_bm_s2_s3 [1:0] $end
$var wire 2 X w_bm_s1_s2 [1:0] $end
$var wire 2 Y w_bm_s0_s2 [1:0] $end
$var wire 2 Z w_bm_s0_s0 [1:0] $end
$var wire 1 5 valid_serial_o $end
$var wire 1 7 valid_i $end
$var wire 1 6 data_serial_o $end
$var wire 2 [ data_core_i [1:0] $end
$var parameter 32 \ PM_WIDTH $end
$var parameter 32 ] TBL $end
$scope module acsu_inst $end
$var wire 9 ^ sum_s3_src3 [8:0] $end
$var wire 9 _ sum_s3_src1 [8:0] $end
$var wire 9 ` sum_s2_src3 [8:0] $end
$var wire 9 a sum_s2_src1 [8:0] $end
$var wire 9 b sum_s1_src2 [8:0] $end
$var wire 9 c sum_s1_src0 [8:0] $end
$var wire 9 d sum_s0_src2 [8:0] $end
$var wire 9 e sum_s0_src0 [8:0] $end
$var wire 8 f pm_s3_o [7:0] $end
$var wire 8 g pm_s3_i [7:0] $end
$var wire 8 h pm_s3_cand3 [7:0] $end
$var wire 8 i pm_s3_cand1 [7:0] $end
$var wire 8 j pm_s2_o [7:0] $end
$var wire 8 k pm_s2_i [7:0] $end
$var wire 8 l pm_s2_cand3 [7:0] $end
$var wire 8 m pm_s2_cand1 [7:0] $end
$var wire 8 n pm_s1_o [7:0] $end
$var wire 8 o pm_s1_i [7:0] $end
$var wire 8 p pm_s1_cand2 [7:0] $end
$var wire 8 q pm_s1_cand0 [7:0] $end
$var wire 8 r pm_s0_o [7:0] $end
$var wire 8 s pm_s0_i [7:0] $end
$var wire 8 t pm_s0_cand2 [7:0] $end
$var wire 8 u pm_s0_cand0 [7:0] $end
$var wire 4 v dec_bits_o [3:0] $end
$var wire 2 w bm_s3_s3_i [1:0] $end
$var wire 2 x bm_s3_s1_i [1:0] $end
$var wire 2 y bm_s2_s3_i [1:0] $end
$var wire 2 z bm_s2_s1_i [1:0] $end
$var wire 2 { bm_s1_s2_i [1:0] $end
$var wire 2 | bm_s1_s0_i [1:0] $end
$var wire 2 } bm_s0_s2_i [1:0] $end
$var wire 2 ~ bm_s0_s0_i [1:0] $end
$var parameter 32 !" PM_WIDTH $end
$upscope $end
$scope module bmu_inst $end
$var wire 2 "" bm_s1_s0_o [1:0] $end
$var wire 2 #" bm_s2_s1_o [1:0] $end
$var wire 2 $" bm_s3_s1_o [1:0] $end
$var wire 2 %" bm_s3_s3_o [1:0] $end
$var wire 2 &" diff_s0_s0 [1:0] $end
$var wire 2 '" diff_s0_s2 [1:0] $end
$var wire 2 (" diff_s1_s2 [1:0] $end
$var wire 2 )" diff_s2_s3 [1:0] $end
$var wire 2 *" piso_data_i [1:0] $end
$var wire 2 +" bm_s2_s3_o [1:0] $end
$var wire 2 ," bm_s1_s2_o [1:0] $end
$var wire 2 -" bm_s0_s2_o [1:0] $end
$var wire 2 ." bm_s0_s0_o [1:0] $end
$var parameter 2 /" C00 $end
$var parameter 2 0" C01 $end
$var parameter 2 1" C12 $end
$var parameter 2 2" C13 $end
$var parameter 2 3" C20 $end
$var parameter 2 4" C21 $end
$var parameter 2 5" C32 $end
$var parameter 2 6" C33 $end
$upscope $end
$scope module pmu_inst $end
$var wire 1 ' clk $end
$var wire 8 7" pm_new_s0_i [7:0] $end
$var wire 8 8" pm_new_s1_i [7:0] $end
$var wire 8 9" pm_new_s2_i [7:0] $end
$var wire 8 :" pm_new_s3_i [7:0] $end
$var wire 1 + rst_n $end
$var wire 1 7 valid_i $end
$var parameter 32 ;" PM_WIDTH $end
$var parameter 32 <" TBL $end
$var reg 8 =" min_pm [7:0] $end
$var reg 8 >" pm_current_s0_o [7:0] $end
$var reg 8 ?" pm_current_s1_o [7:0] $end
$var reg 8 @" pm_current_s2_o [7:0] $end
$var reg 8 A" pm_current_s3_o [7:0] $end
$upscope $end
$scope module tbu_inst $end
$var wire 1 4 busy_o $end
$var wire 1 ' clk $end
$var wire 4 B" dec_bits_i [3:0] $end
$var wire 8 C" pm_s0_i [7:0] $end
$var wire 8 D" pm_s1_i [7:0] $end
$var wire 8 E" pm_s2_i [7:0] $end
$var wire 8 F" pm_s3_i [7:0] $end
$var wire 1 + rst_n $end
$var wire 1 5 valid_serial_o $end
$var wire 1 7 valid_i $end
$var wire 1 G" s2_vs_s3 $end
$var wire 1 H" s0_vs_s1 $end
$var wire 8 I" min_23 [7:0] $end
$var wire 8 J" min_01 [7:0] $end
$var wire 1 K" min01_vs_min23 $end
$var wire 1 6 data_serial_o $end
$var parameter 32 L" PIPE_LEN $end
$var parameter 32 M" PM_WIDTH $end
$var parameter 32 N" TBL $end
$var reg 2 O" best_state [1:0] $end
$var reg 15 P" path_s0 [14:0] $end
$var reg 15 Q" path_s1 [14:0] $end
$var reg 15 R" path_s2 [14:0] $end
$var reg 15 S" path_s3 [14:0] $end
$var reg 15 T" valid_pipe [14:0] $end
$upscope $end
$upscope $end
$scope module fifo_inst $end
$var wire 1 ' clk $end
$var wire 1 E rd_en_i $end
$var wire 1 + rst_n $end
$var wire 16 U" wr_data_i [15:0] $end
$var wire 1 ) wr_en_i $end
$var wire 1 ; full_o $end
$var wire 1 < empty_o $end
$var parameter 32 V" DATA_WIDTH $end
$var parameter 32 W" FIFO_DEPTH $end
$var reg 5 X" count [4:0] $end
$var reg 16 Y" rd_data_o [15:0] $end
$var reg 4 Z" rd_ptr [3:0] $end
$var reg 4 [" wr_ptr [3:0] $end
$upscope $end
$scope module piso_inst $end
$var wire 1 ' clk $end
$var wire 16 \" data_parallel_i [15:0] $end
$var wire 1 I load_i $end
$var wire 1 + rst_n $end
$var wire 2 ]" data_serial_o [1:0] $end
$var parameter 32 ^" TBL $end
$var reg 4 _" bit_cnt [3:0] $end
$var reg 1 9 busy_o $end
$var reg 16 `" shift_reg [15:0] $end
$var reg 1 7 valid_serial_o $end
$upscope $end
$scope module sipo_inst $end
$var wire 1 ' clk $end
$var wire 1 6 data_serial_i $end
$var wire 1 + rst_n $end
$var wire 1 5 valid_serial_i $end
$var reg 3 a" bit_cnt [2:0] $end
$var reg 1 ! byte_ready_o $end
$var reg 8 b" data_parallel_o [7:0] $end
$var reg 8 c" shift_reg [7:0] $end
$upscope $end
$upscope $end
$scope begin $unm_blk_4 $end
$var reg 8 d" rand_byte [7:0] $end
$upscope $end
$scope task send_and_wait $end
$var reg 8 e" original_data [7:0] $end
$var reg 16 f" encoded_val [15:0] $end
$var reg 1 g" got_result $end
$var integer 32 h" timeout_ctr [31:0] $end
$upscope $end
$upscope $end
$enddefinitions $end
$comment Show the parameter values. $end
$dumpall
b1111 ^"
b10000 W"
b10000 V"
b1111 N"
b1000 M"
b1111 L"
b1111 <"
b1000 ;"
b10 6"
b1 5"
b0 4"
b11 3"
b1 2"
b10 1"
b11 0"
b0 /"
b1000 !"
b1111 ]
b1000 \
b1111 D
b100 C
b1 B
b10 A
b11 @
b0 ?
b100000 >
b11111010000 &
b101 %
b1010 $
$end
#0
$dumpvars
b0 h"
0g"
b0 f"
bx e"
b0 d"
b0 c"
b0 b"
b0 a"
b0 `"
b0 _"
b0 ]"
b0 \"
b0 ["
b0 Z"
b0 Y"
b0 X"
b0 U"
b0 T"
b0 S"
b0 R"
b0 Q"
b0 P"
b0 O"
0K"
b0 J"
b10000001 I"
0H"
0G"
b10000001 F"
b10000001 E"
b10 D"
b0 C"
b0 B"
b10000000 A"
b10000000 @"
b10000000 ?"
b0 >"
b0 ="
b10000001 :"
b10000001 9"
b10 8"
b0 7"
b0 ."
b10 -"
b1 ,"
b1 +"
b0 *"
b1 )"
b10 ("
b11 '"
b0 &"
b0 %"
b0 $"
b0 #"
b0 ""
b0 ~
b10 }
b1 |
b1 {
b0 z
b10 y
b1 x
b1 w
b0 v
b0 u
b10000010 t
b0 s
b0 r
b10 q
b10000000 p
b10000000 o
b10 n
b10000001 m
b10000001 l
b10000000 k
b10000001 j
b10000001 i
b10000001 h
b10000000 g
b10000001 f
b0 e
b10000010 d
b10 c
b10000000 b
b10000001 a
b10000001 `
b10000001 _
b10000001 ^
b0 [
b0 Z
b10 Y
b1 X
b1 W
b0 V
b0 U
b10000000 T
b10000000 S
b10000000 R
b0 Q
b10 P
b10000001 O
b10000001 N
b0 M
b0 L
b0 K
b0 J
0I
b0 H
b0 G
b0 F
0E
b0 =
1<
0;
b0 :
09
b0 8
07
06
05
04
b0 3
b0 2
01
00
b0 /
b0 .
b0 -
b0 ,
0+
b0 *
0)
b0 (
0'
0#
b0 "
0!
$end
#5000
1'
#10000
0'
#15000
1'
#20000
0'
#25000
1'
#30000
0'
#35000
1'
#40000
0'
#45000
1'
#50000
0'
#55000
1'
#60000
0'
#65000
1'
#70000
0'
#75000
1'
#80000
0'
#85000
1'
#90000
0'
#95000
1'
#100000
0'
1+
#105000
b1 F
b11 G
1'
#110000
0'
#115000
b100 G
1I
1'
#120000
0'
#125000
b0 G
0I
19
b1000 _"
1'
#130000
0'
#135000
b111 _"
17
1'
#140000
0'
#145000
b11 I"
b11 N
b11 f
b11 :"
b11 F"
b11 O
b11 j
b11 9"
b11 E"
b10000010 h
b10000010 l
b10000001 p
b10000011 t
b11 i
b11 m
b10000010 ^
b10000010 `
b10000001 b
b10000011 d
b11 _
b11 a
b1 T"
b1 S"
b1 Q"
b10000001 R
b10000001 g
b10000001 A"
b10000001 S
b10000001 k
b10000001 @"
b10 T
b10 o
b10 ?"
b110 _"
1'
#150000
0'
#155000
b100 h
b100 l
b11 p
b101 t
b100 ^
b100 `
b11 b
b101 d
b101 _"
b11 R
b11 g
b11 A"
b11 S
b11 k
b11 @"
b11 T"
b11 S"
b10 R"
1'
#160000
0'
#165000
b111 T"
b100 _"
1'
#170000
0'
#175000
b11 _"
b1111 T"
1'
#180000
0'
#185000
b11111 T"
b10 _"
1'
#190000
0'
#195000
b1 _"
b111111 T"
1'
#200000
0'
b1110001000010111 f"
b1000 2
b1110001000010111 /
10
11
b100 *
b110101 .
b110101 e"
#205000
0<
b1111111 T"
09
b1 X"
b1 ["
b1110001000010111 (
b1110001000010111 3
b1110001000010111 U"
1)
1'
#210000
0'
#215000
07
b11111111 T"
b1 G
b0 F
1E
b0 (
b0 3
b0 U"
0)
1'
#220000
0'
#225000
1<
b10 G
0E
b111111110 T"
b0 X"
b1 Z"
b1110001000010111 :
b1110001000010111 Y"
b1 h"
1'
#230000
0'
#235000
b1111111100 T"
b11 G
b1110001000010111 H
b1110001000010111 \"
b10 h"
1'
#240000
0'
#245000
b100 G
1I
b11111111000 T"
b11 h"
1'
#250000
0'
#255000
b1 O"
b0 ="
1H"
b0 P
b0 n
b0 8"
b0 D"
b10 Q
b10 r
b10 7"
b10 C"
b0 q
b11 t
b101 p
b10 u
b0 c
b11 d
b101 b
b10 e
b1 W
b1 x
b1 |
b1 +"
b1 X
b1 w
b1 {
b1 ,"
b0 Y
b0 y
b0 }
b0 -"
b10 Z
b10 z
b10 ~
b10 ."
b10 )"
b1 ("
b0 '"
b11 &"
b11 8
b11 [
b11 *"
b11 ]"
19
b1000 _"
b1110001000010111 `"
b111111110000 T"
b0 G
0I
b100 h"
1'
#260000
0'
#265000
b1000 V
b1000 v
b1000 B"
b10 I"
b0 O"
b1 J"
b1 ="
b10 O
b10 j
b10 9"
b10 E"
0H"
b1 P
b1 n
b1 8"
b1 D"
b1 Q
b1 r
b1 7"
b1 C"
b100 i
b101 l
b11 h
b10 m
b1 q
b100 t
b100 p
b1 u
b100 _
b101 `
b11 ^
b10 a
b1 c
b100 d
b100 b
b1 e
b10 W
b10 x
b10 |
b10 +"
b0 X
b0 w
b0 {
b0 ,"
b1 Y
b1 y
b1 }
b1 -"
b1 Z
b1 z
b1 ~
b1 ."
b11 )"
b0 ("
b1 '"
b10 &"
b10 8
b10 [
b10 *"
b10 ]"
b1111111100000 T"
b111 _"
b1000100001011100 `"
17
b101 h"
1'
#270000
0'
#275000
b0 J"
b0 Q
b0 r
b0 7"
b0 C"
b10 q
b0 u
b0 O"
b10 c
b0 e
b10 V
b10 v
b10 B"
0K"
b1 I"
b0 ="
b1 W
b1 x
b1 |
b1 +"
b1 X
b1 w
b1 {
b1 ,"
b10 Y
b10 y
b10 }
b10 -"
b0 Z
b0 z
b0 ~
b0 ."
b1 N
b1 f
b1 :"
b1 F"
b1 O
b1 j
b1 9"
b1 E"
b11 h
b11 l
b1 p
b11 t
b1 i
b1 m
b1 )"
b10 ("
b11 '"
b0 &"
b0 8
b0 [
b0 *"
b0 ]"
b11 ^
b11 `
b1 b
b11 d
b1 _
b1 a
b110 _"
b10000101110000 `"
b10 R
b10 g
b10 A"
b1 S
b1 k
b1 @"
b0 T
b0 o
b0 ?"
b11111111000001 T"
b111 S"
b110 h"
1'
#280000
0'
#285000
b1000 V
b1000 v
b1000 B"
b1 J"
b1 ="
b1 Q
b1 r
b1 7"
b1 C"
b1 q
b10 t
b10 p
b1 u
b1 I"
b1 c
b10 d
b10 b
b1 e
b1 N
b1 f
b1 :"
b1 F"
0G"
b1 O
b1 j
b1 9"
b1 E"
b10 W
b10 x
b10 |
b10 +"
b0 X
b0 w
b0 {
b0 ,"
b1 Y
b1 y
b1 }
b1 -"
b1 Z
b1 z
b1 ~
b1 ."
b1 h
b11 l
b11 i
b1 m
b11 )"
b0 ("
b1 '"
b10 &"
15
b1 ^
b11 `
b11 _
b1 a
b10 8
b10 [
b10 *"
b10 ]"
b111111110000011 T"
b11 S"
b101 Q"
b1 R
b1 g
b1 A"
b1 T
b1 o
b1 ?"
b101 _"
b1000010111000000 `"
b111 h"
1'
#290000
0'
#295000
b10 V
b10 v
b10 B"
b0 J"
0G"
b0 P
b0 n
b0 8"
b0 D"
b0 Q
b0 r
b0 7"
b0 C"
b10 q
b0 u
b0 O"
b10 c
b0 e
0K"
b1 I"
b0 ="
b1 W
b1 x
b1 |
b1 +"
b1 X
b1 w
b1 {
b1 ,"
b10 Y
b10 y
b10 }
b10 -"
b0 Z
b0 z
b0 ~
b0 ."
b1 N
b1 f
b1 :"
b1 F"
b1 O
b1 j
b1 9"
b1 E"
b1 h
b1 l
b0 p
b10 t
b1 i
b1 m
b1 )"
b10 ("
b11 '"
b0 &"
b0 8
b0 [
b0 *"
b0 ]"
b1 ^
b1 `
b0 b
b10 d
b1 _
b1 a
b100 _"
b1011100000000 `"
b0 R
b0 g
b0 A"
b0 S
b0 k
b0 @"
b0 T
b0 o
b0 ?"
b111111100000111 T"
b111 S"
b1010 R"
b1 Q"
b1 a"
b1000 h"
1'
#300000
0'
#305000
b11 O"
1K"
b0 I"
b100 V
b100 v
b100 B"
b1 J"
b0 ="
1G"
b0 N
b0 f
b0 :"
b0 F"
b1 Q
b1 r
b1 7"
b1 C"
b0 i
b10 m
b1 q
b1 u
b0 _
b10 a
b1 c
b1 e
b1 P
b1 n
b1 8"
b1 D"
b0 W
b0 x
b0 |
b0 +"
b10 X
b10 w
b10 {
b10 ,"
b1 Y
b1 y
b1 }
b1 -"
b1 Z
b1 z
b1 ~
b1 ."
b11 h
b1 l
b10 p
b10 t
b0 )"
b11 ("
b10 '"
b1 &"
b11 ^
b1 `
b10 b
b10 d
b1 8
b1 [
b1 *"
b1 ]"
b10 a"
b111111000001111 T"
b11 S"
b10 R"
b10101 Q"
b1 R
b1 g
b1 A"
b1 S
b1 k
b1 @"
b11 _"
b101110000000000 `"
b1001 h"
1'
#310000
0'
#315000
b10 O"
b10 J"
b0 ="
b0 O
b0 j
b0 9"
b0 E"
0G"
b1 N
b1 f
b1 :"
b1 F"
b10 P
b10 n
b10 8"
b10 D"
0H"
b10 Q
b10 r
b10 7"
b10 C"
b10 h
b0 l
b1 i
b11 m
b10 q
b10 u
b10 ^
b0 `
b1 _
b11 a
b10 c
b10 e
b10 _"
b111000000000000 `"
b0 R
b0 g
b0 A"
b1 T
b1 o
b1 ?"
b1 U
b1 s
b1 >"
b111110000011111 T"
b101011 S"
b110 R"
b1 Q"
b11 a"
b1010 h"
1'
#320000
0'
#325000
b0 O"
0K"
b10 I"
b0 J"
b0 ="
b1101 V
b1101 v
b1101 B"
b10 O
b10 j
b10 9"
b10 E"
b10 N
b10 f
b10 :"
b10 F"
b10 P
b10 n
b10 8"
b10 D"
b0 Q
b0 r
b0 7"
b0 C"
b1 W
b1 x
b1 |
b1 +"
b1 X
b1 w
b1 {
b1 ,"
b0 Y
b0 y
b0 }
b0 -"
b10 Z
b10 z
b10 ~
b10 ."
b10 h
b10 l
b10 p
b0 t
b11 i
b11 m
b10 q
b100 u
b10 )"
b1 ("
b0 '"
b11 &"
b10 ^
b10 `
b10 b
b0 d
b11 _
b11 a
b10 c
b100 e
b11 8
b11 [
b11 *"
b11 ]"
b100 a"
b111100000111111 T"
b11 S"
b1010110 R"
b1 R
b1 g
b1 A"
b0 S
b0 k
b0 @"
b10 T
b10 o
b10 ?"
b10 U
b10 s
b10 >"
b1 _"
b1100000000000000 `"
b1011 h"
1'
#330000
0'
#335000
b11 I"
b0 O"
b0 V
b0 v
b0 B"
b0 ="
b1 W
b1 x
b1 |
b1 +"
b1 X
b1 w
b1 {
b1 ,"
b10 Y
b10 y
b10 }
b10 -"
b0 Z
b0 z
b0 ~
b0 ."
b11 N
b11 f
b11 :"
b11 F"
0G"
b11 O
b11 j
b11 9"
b11 E"
0H"
b0 Q
b0 r
b0 7"
b0 C"
b10 P
b10 n
b10 8"
b10 D"
b11 h
b11 l
b10 p
b100 t
b10 q
b0 u
b1 )"
b10 ("
b11 '"
b0 &"
b0 8
b0 [
b0 *"
b0 ]"
b11 ^
b11 `
b10 b
b100 d
b10 c
b0 e
09
b0 `"
b10 R
b10 g
b10 A"
b10 S
b10 k
b10 @"
b0 U
b0 s
b0 >"
b111000001111111 T"
b111 S"
b110 R"
b10101100 P"
b101 a"
b1100 h"
1'
#340000
0'
#345000
b100 h
b100 l
b11 p
b101 t
b100 ^
b100 `
b11 b
b101 d
b1 F
b11 G
b0 H
b0 \"
b110 a"
b110000011111111 T"
b11 S"
b10 R"
b101011001 Q"
b101011000 P"
b11 R
b11 g
b11 A"
b11 S
b11 k
b11 @"
07
b1101 h"
1'
#350000
0'
#355000
b100000111111110 T"
b111 a"
b100 G
1I
b1110 h"
1'
#360000
0'
#365000
05
b0 G
0I
b0 a"
1!
b1111111100 T"
19
b1000 _"
b1111 h"
1'
#370000
0'
#375000
b111 _"
17
b11111111000 T"
0!
b10000 h"
1'
#380000
0'
#385000
b111111110001 T"
b1010110011 S"
b1010110010 R"
b1010110001 Q"
b1010110000 P"
b110 _"
b10001 h"
1'
#390000
0'
#395000
b101 _"
b1111111100011 T"
b10101100011 S"
b10101100010 R"
b10101100001 Q"
b10101100000 P"
b10010 h"
1'
#400000
0'
#405000
b11111111000111 T"
b101011000011 S"
b101011000010 R"
b101011000001 Q"
b101011000000 P"
b100 _"
b10011 h"
1'
#410000
0'
#415000
15
b11 _"
b111111110001111 T"
b1010110000011 S"
b1010110000010 R"
b1010110000001 Q"
b1010110000000 P"
b10100 h"
1'
#420000
0'
#425000
b1 a"
b111111100011111 T"
b10101100000011 S"
b10101100000010 R"
b10101100000001 Q"
b10101100000000 P"
b10 _"
b10101 h"
1'
#430000
0'
#435000
16
b1 _"
b111111000111111 T"
b101011000000011 S"
b101011000000010 R"
b101011000000001 Q"
b101011000000000 P"
b10 a"
b10110 h"
1'
#440000
0'
#445000
06
b11 a"
b10000000 c"
b111110001111111 T"
b10110000000011 S"
b10110000000010 R"
b10110000000001 Q"
b10110000000000 P"
09
b10111 h"
1'
#450000
0'
#455000
16
07
b111100011111111 T"
b101100000000011 S"
b101100000000010 R"
b101100000000001 Q"
b101100000000000 P"
b100 a"
b1000000 c"
b10 F
b11 G
b11000 h"
1'
#460000
0'
#465000
b100 G
1I
b101 a"
b10100000 c"
b111000111111110 T"
b11001 h"
1'
#470000
0'
#475000
19
b1000 _"
b110001111111100 T"
b110 a"
b11010000 c"
b0 G
0I
b11010 h"
1'
#480000
0'
#485000
b111 a"
b11101000 c"
b100011111111000 T"
b111 _"
17
b11011 h"
1'
#490000
0'
#495000
06
05
b110 _"
b111111110001 T"
b11000000000011 S"
b11000000000010 R"
b11000000000001 Q"
b11000000000000 P"
b0 a"
1!
b11110100 "
b11110100 =
b11110100 b"
b11110100 c"
b11100 h"
1'
#500000
0'
#505000
16
0!
b1111111100011 T"
b110000000000011 S"
b110000000000010 R"
b110000000000001 Q"
b110000000000000 P"
b101 _"
1g"
b1 ,
b11101 h"
1'
#510000
0'
#515000
b100 _"
b11111111000111 T"
b100000000000011 S"
b100000000000010 R"
b100000000000001 Q"
b100000000000000 P"
1'
#520000
0'
#525000
06
15
b111111110001111 T"
b11 S"
b10 R"
b1 Q"
b0 P"
b11 _"
1'
#530000
0'
#535000
b10 _"
b111111100011111 T"
b1 a"
b1111010 c"
1'
#540000
0'
#545000
b10 a"
b111101 c"
b111111000111111 T"
b1 _"
1'
#550000
0'
#555000
09
b111110001111111 T"
b11 a"
b11110 c"
1'
#560000
0'
#565000
b11 F
b11 G
b100 a"
b1111 c"
b111100011111111 T"
07
1'
#570000
0'
#575000
b111000111111110 T"
b101 a"
b111 c"
b100 G
1I
1'
#580000
0'
#585000
b0 G
0I
b110 a"
b11 c"
b110001111111100 T"
19
b1000 _"
1'
#590000
0'
#595000
b111 _"
17
b100011111111000 T"
b111 a"
b1 c"
1'
#600000
0'
#605000
05
b0 a"
1!
b0 "
b0 =
b0 b"
b0 c"
b111111110001 T"
b110 _"
1'
#610000
0'
#615000
b101 _"
b1111111100011 T"
0!
1'
#620000
0'
#625000
b11111111000111 T"
b100 _"
1'
#630000
0'
#635000
15
b11 _"
b111111110001111 T"
1'
#640000
0'
#645000
b1 a"
b111111100011111 T"
b10 _"
1'
#650000
0'
#655000
b1 _"
b111111000111111 T"
b10 a"
1'
#660000
0'
#665000
b11 a"
b111110001111111 T"
09
1'
#670000
0'
#675000
07
b111100011111111 T"
b100 a"
b100 F
b11 G
1'
#680000
0'
#685000
b100 G
1I
b101 a"
b111000111111110 T"
1'
#690000
0'
#695000
19
b1000 _"
b110001111111100 T"
b110 a"
b0 G
0I
1'
#700000
0'
#705000
0<
b111 a"
b100011111111000 T"
b111 _"
17
b1 X"
b10 ["
b111011111011 (
b111011111011 3
b111011111011 U"
1)
1'
b111011111011 f"
10
11
b100 *
b1000 2
b111011111011 /
b100100 .
b100100 e"
b100100 d"
#710000
0'
#715000
05
b110 _"
b111111110001 T"
b0 a"
1!
b0 h"
0g"
b0 (
b0 3
b0 U"
0)
1'
#720000
0'
#725000
0!
b1111111100011 T"
b101 _"
b1 h"
1'
#730000
0'
#735000
b100 _"
b11111111000111 T"
b10 h"
1'
#740000
0'
#745000
15
b111111110001111 T"
b11 _"
b11 h"
1'
#750000
0'
#755000
b10 _"
b111111100011111 T"
b1 a"
b100 h"
1'
#760000
0'
#765000
b10 a"
b111111000111111 T"
b1 _"
b101 h"
1'
#770000
0'
#775000
09
b111110001111111 T"
b11 a"
b110 h"
1'
#780000
0'
#785000
b1 G
b0 F
1E
b100 a"
b111100011111111 T"
07
b111 h"
1'
#790000
0'
#795000
1<
b0 X"
b10 Z"
b111011111011 :
b111011111011 Y"
b111000111111110 T"
b101 a"
b10 G
0E
b1000 h"
1'
#800000
0'
#805000
b11 G
b111011111011 H
b111011111011 \"
b110 a"
b110001111111100 T"
b1001 h"
1'
#810000
0'
#815000
b100011111111000 T"
b111 a"
b100 G
1I
b1010 h"
1'
#820000
0'
#825000
05
b0 G
0I
b0 a"
1!
b111111110000 T"
19
b1000 _"
b111011111011 `"
b1011 h"
1'
#830000
0'
#835000
b111 _"
b11101111101100 `"
17
b1111111100000 T"
0!
b1100 h"
1'
#840000
0'
#845000
b1 O"
b0 ="
1H"
b0 P
b0 n
b0 8"
b0 D"
b10 Q
b10 r
b10 7"
b10 C"
b0 q
b11 t
b101 p
b10 u
b0 c
b11 d
b101 b
b10 e
b1 W
b1 x
b1 |
b1 +"
b1 X
b1 w
b1 {
b1 ,"
b0 Y
b0 y
b0 }
b0 -"
b10 Z
b10 z
b10 ~
b10 ."
b10 )"
b1 ("
b0 '"
b11 &"
b11 8
b11 [
b11 *"
b11 ]"
b11111111000001 T"
b110 _"
b1110111110110000 `"
b1101 h"
1'
#850000
0'
#855000
0H"
b101 l
b11 h
b100 t
b100 p
b10 O"
b101 `
b11 ^
b100 d
b100 b
1K"
b0 I"
b11 J"
b0 ="
b0 V
b0 v
b0 B"
b10 W
b10 x
b10 |
b10 +"
b0 X
b0 w
b0 {
b0 ,"
b1 Y
b1 y
b1 }
b1 -"
b1 Z
b1 z
b1 ~
b1 ."
b10 N
b10 f
b10 :"
b10 F"
b0 O
b0 j
b0 9"
b0 E"
b11 P
b11 n
b11 8"
b11 D"
b11 Q
b11 r
b11 7"
b11 C"
b10 i
b0 m
b11 q
b11 u
b11 )"
b0 ("
b1 '"
b10 &"
b10 8
b10 [
b10 *"
b10 ]"
b10 _
b0 a
b11 c
b11 e
15
b101 _"
b1011111011000000 `"
b0 T
b0 o
b0 ?"
b10 U
b10 s
b10 >"
b111111110000011 T"
b1110 h"
1'
#860000
0'
#865000
b11 N
b11 f
b11 :"
b11 F"
b1111 V
b1111 v
b1111 B"
b0 O"
0K"
b11 I"
b0 J"
b0 ="
0G"
b11 O
b11 j
b11 9"
b11 E"
b10 P
b10 n
b10 8"
b10 D"
b0 Q
b0 r
b0 7"
b0 C"
b1 W
b1 x
b1 |
b1 +"
b1 X
b1 w
b1 {
b1 ,"
b0 Y
b0 y
b0 }
b0 -"
b10 Z
b10 z
b10 ~
b10 ."
b11 h
b11 l
b10 p
b0 t
b100 i
b100 m
b11 q
b101 u
b10 )"
b1 ("
b0 '"
b11 &"
b11 ^
b11 `
b10 b
b0 d
b100 _
b100 a
b11 c
b101 e
b11 8
b11 [
b11 *"
b11 ]"
b1 a"
b111111100000111 T"
b10 R
b10 g
b10 A"
b0 S
b0 k
b0 @"
b11 T
b11 o
b11 ?"
b11 U
b11 s
b11 >"
b100 _"
b1111101100000000 `"
b1111 h"
1'
#870000
0'
#875000
b1 O"
b0 ="
b0 V
b0 v
b0 B"
1H"
b10 Q
b10 r
b10 7"
b10 C"
b0 P
b0 n
b0 8"
b0 D"
b100 h
b100 l
b101 p
b11 t
b11 i
b11 m
b0 q
b10 u
b100 ^
b100 `
b101 b
b11 d
b11 _
b11 a
b0 c
b10 e
b11 _"
b1110110000000000 `"
b11 R
b11 g
b11 A"
b11 S
b11 k
b11 @"
b10 T
b10 o
b10 ?"
b0 U
b0 s
b0 >"
b111111000001111 T"
b111 S"
b110 R"
b101 Q"
b100 P"
b10 a"
b10000 h"
1'
#880000
0'
